Air Pollution
…
Downloading the selected data

Now that we have checked which data is available, one can download the desired data from the AURN by using the importAURN() function. Other networks can be accessed by using functions described here.

If one checks the importAURN() documentation, they will see that we can use the site, year and pollutant arguments. We will set them appropriately to download the desired data. As a remark, just notice that the site parameter has to be a list of the sites’ code written in lowercase. Therefore,

selected_sites <- selected_data %>%
  select(code) %>%
  mutate_all(.funs = tolower)
selected_sites

## # A tibble: 121 x 1
##    code 
##    <chr>
##  1 abd  
##  2 abd9 
##  3 acth 
##  4 bple 
##  5 bel2 
##  6 birr 
##  7 agrn 
##  8 birm 
##  9 bmld 
## 10 bir1 
## # ... with 111 more rows
…
