Species Occurrence
…
However, since different sources provide data in various formats, spocc also has a function that converts and formats data appropriately, namely occ2df().

occ2df(obj = data)

## # A tibble: 1,000 x 6
##    name                                longitude latitude prov  date       key  
##    <chr>                                   <dbl>    <dbl> <chr> <date>     <chr>
##  1 Panthera leo melanochaita (C.E.H.S~      38.9 -3.62e+0 gbif  2022-01-07 3455~
##  2 Panthera leo melanochaita (C.E.H.S~      25.6 -3.35e+1 gbif  2022-01-01 3456~
##  3 Panthera leo melanochaita (C.E.H.S~      32.2 -2.01e+1 gbif  2022-01-04 3456~
##  4 Panthera leo melanochaita (C.E.H.S~      38.2  5.43e-3 gbif  2022-01-01 3456~
##  5 Panthera leo melanochaita (C.E.H.S~      37.0 -1.39e+0 gbif  2022-01-12 3456~
##  6 Panthera leo melanochaita (C.E.H.S~      28.5 -2.38e+1 gbif  2022-01-10 3456~
##  7 Panthera leo melanochaita (C.E.H.S~      31.7 -2.48e+1 gbif  2022-01-02 3456~
##  8 Panthera leo melanochaita (C.E.H.S~      35.1  1.73e+0 gbif  2022-01-02 3457~
##  9 Panthera leo melanochaita (C.E.H.S~      25.7 -3.35e+1 gbif  2022-01-01 3457~
## 10 Panthera leo melanochaita (C.E.H.S~      25.7 -3.35e+1 gbif  2022-01-01 3457~
## # ... with 990 more rows
…
As one can see, we have retrieved 185 observations from GBIF and 324 from iNAT (509 in total). Now, we can nicely convert and format our data using the occ2df() function.

jaguar <- occ2df(jaguar)

# Convert 'longitude' and 'latitude' columns into numbers
jaguar <- jaguar %>% mutate_at(c('longitude', 'latitude'), as.numeric)

# Remove lines with NA for 'longitude' or 'latitude', if any
jaguar <- jaguar %>% filter_at(vars(longitude, latitude), all_vars(!is.na(.)))

jaguar

## # A tibble: 685 x 6
##    name                           longitude latitude prov  date       key       
##    <chr>                              <dbl>    <dbl> <chr> <date>     <chr>     
##  1 Panthera onca (Linnaeus, 1758)     -105.     21.7 gbif  2020-01-10 2557813727
##  2 Panthera onca (Linnaeus, 1758)     -106.     21.8 gbif  2020-01-10 2563487815
##  3 Panthera onca (Linnaeus, 1758)     -105.     21.8 gbif  2020-01-10 2563488017
##  4 Panthera onca (Linnaeus, 1758)     -106.     21.7 gbif  2020-01-11 2563488309
##  5 Panthera onca (Linnaeus, 1758)     -105.     21.7 gbif  2020-01-11 2563488355
##  6 Panthera onca (Linnaeus, 1758)     -105.     21.8 gbif  2020-01-10 2563488417
##  7 Panthera onca (Linnaeus, 1758)     -105.     21.6 gbif  2020-01-11 2563488541
##  8 Panthera onca (Linnaeus, 1758)     -105.     21.7 gbif  2020-01-11 2563488786
##  9 Panthera onca (Linnaeus, 1758)     -106.     21.7 gbif  2020-01-10 2563488961
## 10 Panthera onca (Linnaeus, 1758)     -105.     21.7 gbif  2020-01-11 2563489363
## # ... with 675 more rows
However, these data come from all around the world. Recall that we want data just from South America. We can achieve this by only considering the data points that has intersection with our shape object. This can be done by

# Convert longitude/latitude to POINT
jaguar <- st_as_sf(x = jaguar, coords = c('longitude', 'latitude'), crs = st_crs(shape))
# Select locations that belong to South America
jaguar <- st_join(x = jaguar, y = shape, left = FALSE) # if left = TRUE, return left join

jaguar

## Simple feature collection with 313 features and 5 fields
## Geometry type: POINT
## Dimension:     XY
## Bounding box:  xmin: -79.18234 ymin: -29.54858 xmax: -40.63385 ymax: 11.11054
## CRS:           +proj=longlat +datum=WGS84 +no_defs +ellps=WGS84 +towgs84=0,0,0
## # A tibble: 313 x 6
##    name                   prov  date       key                geometry admin   
##  * <chr>                  <chr> <date>     <chr>           <POINT [°]> <chr>   
##  1 Panthera onca (Linnae~ gbif  2020-01-05 2563~ (-77.48873 -1.035258) Ecuador 
##  2 Panthera onca (Linnae~ gbif  2020-01-07 2563~ (-75.51861 -0.652688) Ecuador 
##  3 Panthera onca (Linnae~ gbif  2020-01-07 2563~ (-76.07225 -0.758781) Ecuador 
##  4 Panthera onca (Linnae~ gbif  2020-01-14 2576~ (-56.41679 -17.03398) Brazil  
##  5 Panthera onca (Linnae~ gbif  2020-01-18 3067~ (-71.02769 -12.07986) Peru    
##  6 Panthera onca (Linnae~ gbif  2020-01-30 3118~   (-67.68931 6.12016) Colombia
##  7 Panthera onca (Linnae~ gbif  2020-01-31 3118~   (-67.75761 6.13851) Colombia
##  8 Panthera onca (Linnae~ gbif  2020-01-24 3118~   (-67.74546 6.08136) Colombia
##  9 Panthera onca (Linnae~ gbif  2020-01-26 3395~   (-76.77283 0.87822) Colombia
## 10 Panthera onca (Linnae~ gbif  2020-01-26 3395~   (-76.77283 0.87822) Colombia
## # ... with 303 more rows
…
